…
# untidy my datasets then tidy it up
cancer %>% pivot_wider(names_from = "status", values_from = "status") %>% 
    # untidy the dataset by breaking by 'status' column into two
# columns
pivot_longer(c("2", "1"), names_to = "status")

## # A tibble: 456 x 11
##     inst  time   age   sex ph.ecog ph.karno pat.karno meal.cal wt.loss status
##    <dbl> <dbl> <dbl> <dbl>   <dbl>    <dbl>     <dbl>    <dbl>   <dbl> <chr> 
##  1     3   306    74     1       1       90       100     1175      NA 2     
##  2     3   306    74     1       1       90       100     1175      NA 1     
##  3     3   455    68     1       0       90        90     1225      15 2     
##  4     3   455    68     1       0       90        90     1225      15 1     
##  5     3  1010    56     1       0       90        90       NA      15 2     
##  6     3  1010    56     1       0       90        90       NA      15 1     
##  7     5   210    57     1       1       90        60     1150      11 2     
##  8     5   210    57     1       1       90        60     1150      11 1     
##  9     1   883    60     1       0      100        90       NA       0 2     
## 10     1   883    60     1       0      100        90       NA       0 1     
## # … with 446 more rows, and 1 more variable: value <dbl>

# tidy up the dataset by combining '2' and '1' columns back
# into one column 'status'
veteran %>% pivot_wider(names_from = "trt", values_from = "trt") %>% 
    # untidy the dataset by breaking by 'trt' column into two
# columns
pivot_longer(c("1", "2"), names_to = "trt")

## # A tibble: 274 x 9
##    celltype  time status karno diagtime   age prior trt   value
##    <fct>    <dbl>  <dbl> <dbl>    <dbl> <dbl> <dbl> <chr> <dbl>
##  1 squamous    72      1    60        7    69     0 1         1
##  2 squamous    72      1    60        7    69     0 2        NA
##  3 squamous   411      1    70        5    64    10 1         1
##  4 squamous   411      1    70        5    64    10 2        NA
##  5 squamous   228      1    60        3    38     0 1         1
##  6 squamous   228      1    60        3    38     0 2        NA
##  7 squamous   126      1    60        9    63    10 1         1
##  8 squamous   126      1    60        9    63    10 2        NA
##  9 squamous   118      1    70       11    65    10 1         1
## 10 squamous   118      1    70       11    65    10 2        NA
## # … with 264 more rows
…
in addition, out of all the dead patients, veteran patient have much lower average survival time at 122 days comparing to non-veteran patients at 283 days.

Data %>% filter(status == "censored") %>% group_by(Vet) %>% summarize(mean(time))

## # A tibble: 2 x 2
##   Vet   `mean(time)`
##   <chr>        <dbl>
## 1 No            363.
## 2 Yes           115.

on the other hand, out of all censored patients, non-veteran patients have much higher average survival time at 363.5 days comparing to non-veteran patients at 114.5 days. the survival days is three times higher in non-veteran patients!

Data %>% group_by(Vet) %>% summarize(Avg_age = mean(age))

## # A tibble: 2 x 2
##   Vet   Avg_age
##   <chr>   <dbl>
## 1 No       62.4
## 2 Yes      58.3

this code compare the average onset age of lung cancer in veteran and non-veteran patient. veteran patients have much lower onset age at 58.3 years old comparing to the onset age of 62.4 in non-veteran patients.

Data %>% filter(status == "dead") %>% select(time, karno, age) %>% 
    arrange(desc(time))

##     time karno age
## 1    999    90  54
## 2    991    70  50
## 3    883   100  60
## 4    814    70  65
## 5    791   100  59
## 6    765    90  50
## 7    735    90  72
## 8    731    80  64
## 9    728    90  68
## 10   707    50  63
## 11   705   100  51
## 12   689    90  59
## 13   687    80  58
## 14   655   100  63
## 15   654    70  68
## 16   643    90  74
## 17   641    80  62
## 18   624    70  50
## 19   613    90  70
## 20   587    60  58
## 21   583    60  68
## 22   574   100  60
## 23   567    80  57
## 24   558    90  70
## 25   553    70  47
## 26   550    70  69
## 27   533    60  48
## 28   524    80  54
## 29   524    60  68
## 30   520    90  70
## 31   519    80  63
## 32   477    90  64
## 33   473    90  69
##  [ reached getOption("max.print") -- omitted 260 rows ]
…
